Module 02: Estimating abundance with STE
…
range(count_data$date_time_original)
#> [1] "2022-11-08 03:42:04 UTC" "2023-02-19 00:19:24 UTC"

distinct(count_data, station)
#> # A tibble: 67 × 1
#>    station
#>    <chr>  
#>  1 AY39_a 
#>  2 AZ38_a 
#>  3 AZ39_c 
#>  4 AZ40_b 
#>  5 BA38_c 
#>  6 BA39_b 
#>  7 BA40_b 
#>  8 BA41_b 
#>  9 BA42_a 
#> 10 BA43_b 
#> # ℹ 57 more rows

distinct(count_data, species)
#> # A tibble: 55 × 1
#>    species             
#>    <chr>               
#>  1 Bat_Unspecified     
#>  2 Blank               
#>  3 Cat_Leopard         
#>  4 Human_Field_Team    
#>  5 Macaque_Pig_Tailed  
#>  6 Muntjac_Feas        
#>  7 Muntjac_Northern_Red
#>  8 Serow_Mainland      
#>  9 Boar_Wild           
#> 10 Civet_Large_Indian  
#> # ℹ 45 more rows
…
